-------------------------------------------------------------------------------
Test set: com.infoplusvn.trainingach.TrainingachApplicationTests
-------------------------------------------------------------------------------
Tests run: 1, Failures: 0, Errors: 0, Skipped: 0, Time elapsed: 5.367 s - in com.infoplusvn.trainingach.TrainingachApplicationTests
